{
  "name": "person",
  "plural": "people",
  "base": "Model",
  "idInjection": true,
  "properties": {
    "firstname": {
      "type": "string"
    },
    "lastname": {
      "type": "string"
    }
  },
  "validations": [],
  "relations": {},
  "acls": [],
  "methods": []
}
